{
  "type": "service_account",
  "project_id": "bookmagflutter",
  "private_key_id": "36829b8f190bb36766f2ec13bd289a87b75043d6",
  "private_key": "-----BEGIN PRIVATE KEY-----\nMIIEvAIBADANBgkqhkiG9w0BAQEFAASCBKYwggSiAgEAAoIBAQCrUfz0zssD8Mw7\nr8XNsfoHgwAvrfgGr1R4MTCe9RKtE1MRPVw9DsbBhn40JiEgw4EwhU6OtkbTM9tI\nAz5iSaar/4/2Ss5R8LxlCrUdi1PuUqycRRHKZuJS+fXH7VHXNF1vjUEtEQl7mzhb\nOaDriK4J9MKF+ivh7SYviHjddzKHLWrdViulKqVywpEnO9AMiYVz5VhfgQI7x47w\nm2waY+j9RM649+Oe3X2HqGfZHabFz3Vp8nVVCYoljFxatfbLrjIl2rr1A2tRB755\njA6YShG8QhUAlN1bm/mhQPPyxu54kPQ/hn4KuJAc1YanwmqzBmZfqm6LxVJCge4F\nt5/vczMzAgMBAAECggEATQeZQA129LehbLjUrG74p8X8IHQNUBwnU79ySBaTJiTJ\nNbgsL/vj3AH33sTCInQlM0bNEpfccnwffVqQAytweGd5OFlcOTWPz7Knyrfprf+Y\nQs8/d40Y+AwRuan4IVYXKOAPTQ8a/2vERCg+NYkID8vwZsMcVgIGKFspVRKSMnq5\n6TmpYdhQ6ojqp6uqxNK0tBsig9z1ofW019NaVS7WH7PHX3JpgBhVND7dm3x4sRU2\nJV9OgSEC+6dgXlS01SzUx612qFHPU8rRlNXzM2dlDCqnr781ekClWeoHXCqsKRtz\ntMKPVVpATv4rtEnXJ8D/c1IbbHtz9G3g+rugBuQIgQKBgQDXlj5S3p7Z93D6kVhf\nCP0Zk6W1EqoIF3rJOj7ik6maNF3ZgMjhxJTrLVLaGh4X4tnxO6EVf0t/WXXhwVSf\nwcaYFMV4y+QBPm1tdLvfCl6lXIjhlTXcFFJOesX/kiB/4PHmMt4w5khlAMS7O8hO\nU++eZ7x3S3K7b1UF1MtgaaumwQKBgQDLb3FFxFDiv6YXeIweI0WWDDE6ctF0xOf6\nwTXvu3OsmTC0/UzksUDEfj+cITzotl/rzXR3CTQmeGwawleOZcwY1T+0HDVw0Vks\nSBYGlr/0dizM6yr49dks2Akv3n2vFTa+VFQZd//6hG01STIJzPpp/+0Svh8RQLYQ\nikMBZHhq8wKBgDpEiEm7k7GTuDxw5jKhak7sYgAjsEMJnY0fqflxMYjVGHx9201x\n5VH+6QK7xmBsVr1lgW8e/ZfI5RyENUwMgpF+I7U3XkObzNWllFV/Jv+ImBJoUqtN\n7sT5V+RwaUpG0PqHyxfqVay+3W1BhiztcLkejoirorHYMGGoFuPTC6rBAoGAK7fz\nW87ooxIUm46obgGefrR4D9uE79cxE05aTP63ySvSr9KPp8X/6TpIaUErWcd3rbEl\nij9MGchfUxDYyB1QUzXgztARHAGhbEbBlQDol5yd3BvdzErpNR3oO4VQ9UNV1GlC\n+YY0WJ4E6iKkwj5uwkDhrdl1y7tgZQWRiMcSqckCgYAnYmmKRaDm2PZ56tKgDvdr\nL/4VR6GMBzcDwpQgGaNlnAOZIiNslnD3tD6Rx68aI5zAL+89Vb4Js3xfJCEkrvau\nyfl4tKCFdoMEXCPPCz8Vsz4UxBGBHwn3JGvS6SnvXQNW1EoVb8/uM71M2lCjB6nw\nKFyb3Nf0Yggi25s+5mvfag==\n-----END PRIVATE KEY-----\n",
  "client_email": "firebase-adminsdk-mp18z@bookmagflutter.iam.gserviceaccount.com",
  "client_id": "116277278171645221414",
  "auth_uri": "https://accounts.google.com/o/oauth2/auth",
  "token_uri": "https://oauth2.googleapis.com/token",
  "auth_provider_x509_cert_url": "https://www.googleapis.com/oauth2/v1/certs",
  "client_x509_cert_url": "https://www.googleapis.com/robot/v1/metadata/x509/firebase-adminsdk-mp18z%40bookmagflutter.iam.gserviceaccount.com"
}
